tb_top.vcd
$date
	Wed Sep 10 21:41:33 2025
$end
$version
	Icarus Verilog
$end
$timescale
	1ps
$end
$scope module tb_top $end
$var wire 32 ! write_data [31:0] $end
$var wire 32 " pc [31:0] $end
$var wire 32 # data_addr [31:0] $end
$var reg 1 $ clk $end
$var reg 1 % reset $end
$var integer 32 & cycle_count [31:0] $end
$scope module uut $end
$var wire 1 $ clk $end
$var wire 1 % reset $end
$var wire 32 ' write_data [31:0] $end
$var wire 32 ( read_data [31:0] $end
$var wire 32 ) pc [31:0] $end
$var wire 1 * mem_write $end
$var wire 32 + instr [31:0] $end
$var wire 32 , data_addr [31:0] $end
$scope module data_mem $end
$var wire 1 $ clk $end
$var wire 32 - write_data [31:0] $end
$var wire 32 . rw_addr [31:0] $end
$var wire 1 * mem_write $end
$var reg 32 / read_data [31:0] $end
$upscope $end
$scope module instr_mem $end
$var wire 32 0 instr_addr [31:0] $end
$var reg 32 1 instr [31:0] $end
$upscope $end
$scope module riscv $end
$var wire 1 $ clk $end
$var wire 32 2 instr [31:0] $end
$var wire 32 3 read_data [31:0] $end
$var wire 1 % reset $end
$var wire 1 4 zero $end
$var wire 32 5 write_data [31:0] $end
$var wire 2 6 result_src [1:0] $end
$var wire 1 7 reg_write $end
$var wire 1 8 pc_src $end
$var wire 32 9 pc [31:0] $end
$var wire 1 * mem_write $end
$var wire 2 : imm_src [1:0] $end
$var wire 32 ; data_addr [31:0] $end
$var wire 1 < alu_src $end
$var wire 4 = alu_control [3:0] $end
$scope module control_unit_inst $end
$var wire 3 > funct3 [2:0] $end
$var wire 7 ? funct7 [6:0] $end
$var wire 7 @ opcode [6:0] $end
$var wire 1 8 pc_src $end
$var wire 1 4 zero $end
$var wire 2 A result_src [1:0] $end
$var wire 1 7 reg_write $end
$var wire 1 * mem_write $end
$var wire 1 B jump $end
$var wire 2 C imm_src [1:0] $end
$var wire 1 D branch $end
$var wire 1 < alu_src $end
$var wire 2 E alu_op [1:0] $end
$var wire 4 F alu_control [3:0] $end
$scope module alu_ctl $end
$var wire 3 G funct3 [2:0] $end
$var wire 7 H funct7 [6:0] $end
$var wire 7 I opcode [6:0] $end
$var wire 2 J alu_op [1:0] $end
$var reg 4 K alu_control [3:0] $end
$upscope $end
$scope module control $end
$var wire 7 L opcode [6:0] $end
$var reg 2 M alu_op [1:0] $end
$var reg 1 < alu_src $end
$var reg 1 D branch $end
$var reg 11 N controls [10:0] $end
$var reg 2 O imm_src [1:0] $end
$var reg 1 B jump $end
$var reg 1 * mem_write $end
$var reg 1 7 reg_write $end
$var reg 2 P result_src [1:0] $end
$upscope $end
$upscope $end
$scope module data_path $end
$var wire 4 Q alu_control [3:0] $end
$var wire 1 < alu_src $end
$var wire 1 $ clk $end
$var wire 2 R imm_src [1:0] $end
$var wire 32 S instr [31:0] $end
$var wire 1 8 pc_src $end
$var wire 32 T read_data [31:0] $end
$var wire 1 7 reg_write $end
$var wire 1 % reset $end
$var wire 2 U result_src [1:0] $end
$var wire 1 4 zero $end
$var wire 32 V write_data [31:0] $end
$var wire 32 W srcB [31:0] $end
$var wire 32 X srcA [31:0] $end
$var wire 32 Y result [31:0] $end
$var wire 32 Z pc_target [31:0] $end
$var wire 32 [ pc_plus4 [31:0] $end
$var wire 32 \ pc_next [31:0] $end
$var wire 32 ] immext [31:0] $end
$var wire 32 ^ alu_res [31:0] $end
$var wire 32 _ PC [31:0] $end
$scope module ALU $end
$var wire 4 ` alu_op [3:0] $end
$var wire 1 4 zero $end
$var wire 32 a r2 [31:0] $end
$var wire 32 b r1 [31:0] $end
$var reg 32 c result [31:0] $end
$upscope $end
$scope module alumux $end
$var wire 1 < sel $end
$var wire 32 d b [31:0] $end
$var wire 32 e a [31:0] $end
$var parameter 32 f WIDTH $end
$var reg 32 g out [31:0] $end
$upscope $end
$scope module imm_extend $end
$var wire 2 h immsrc [1:0] $end
$var wire 25 i instr [31:7] $end
$var reg 32 j immext [31:0] $end
$upscope $end
$scope module pcadd4 $end
$var wire 32 k b [31:0] $end
$var wire 32 l out [31:0] $end
$var wire 32 m a [31:0] $end
$var parameter 32 n WIDTH $end
$upscope $end
$scope module pcaddtarget $end
$var wire 32 o b [31:0] $end
$var wire 32 p out [31:0] $end
$var wire 32 q a [31:0] $end
$var parameter 32 r WIDTH $end
$upscope $end
$scope module pcmux $end
$var wire 32 s a [31:0] $end
$var wire 32 t b [31:0] $end
$var wire 1 8 sel $end
$var parameter 32 u WIDTH $end
$var reg 32 v out [31:0] $end
$upscope $end
$scope module program_counter $end
$var wire 1 $ clk $end
$var wire 32 w next_inst [31:0] $end
$var wire 1 % rst $end
$var reg 32 x cur_inst [31:0] $end
$upscope $end
$scope module reg_file $end
$var wire 1 $ clk $end
$var wire 5 y reg1_addr [4:0] $end
$var wire 5 z reg2_addr [4:0] $end
$var wire 5 { regw_addr [4:0] $end
$var wire 1 7 write_ena $end
$var wire 32 | write_data [31:0] $end
$var reg 32 } reg1_data [31:0] $end
$var reg 32 ~ reg2_data [31:0] $end
$upscope $end
$scope module resultmux $end
$var wire 32 !" a [31:0] $end
$var wire 32 "" b [31:0] $end
$var wire 32 #" c [31:0] $end
$var wire 2 $" sel [1:0] $end
$var parameter 32 %" WIDTH $end
$var reg 32 &" out [31:0] $end
$upscope $end
$upscope $end
$upscope $end
$upscope $end
$upscope $end
$enddefinitions $end
$comment Show the parameter values. $end
$dumpall
b100000 %"
b100000 u
b100000 r
b100000 n
b100000 f
$end
#0
$dumpvars
bx &"
bx $"
bx #"
bx ""
bx !"
bx ~
bx }
bx |
bx {
bx z
bx y
bx x
bx w
bx v
bx t
bx s
bx q
bx p
bx o
bx m
bx l
b100 k
bx j
bx i
bx h
bx g
bx e
bx d
bx c
bx b
bx a
bx `
bx _
bx ^
bx ]
bx \
bx [
bx Z
bx Y
bx X
bx W
bx V
bx U
bx T
bx S
bx R
bx Q
bx P
bx O
bx N
bx M
bx L
bx K
bx J
bx I
bx H
bx G
bx F
bx E
xD
bx C
xB
bx A
bx @
bx ?
bx >
bx =
x<
bx ;
bx :
bx 9
x8
x7
bx 6
bx 5
x4
bx 3
bx 2
bx 1
bx 0
bx /
bx .
bx -
bx ,
bx +
x*
bx )
bx (
bx '
b0 &
1%
0$
bx #
bx "
bx !
$end
#5000
b101 W
b101 a
b101 g
b101 Z
b101 p
b101 t
b101 ]
b101 d
b101 j
b101 o
08
b101 Y
b101 |
b101 &"
17
b0 :
b0 C
b0 O
b0 R
b0 h
1<
0*
b0 6
b0 A
b0 P
b0 U
b0 $"
0D
b10 E
b10 J
b10 M
0B
04
b101 #
b101 ,
b101 .
b101 ;
b101 ^
b101 c
b101 !"
b10010000100 N
b10 =
b10 F
b10 K
b10 Q
b10 `
b0 X
b0 b
b0 }
b10011 @
b10011 I
b10011 L
b0 ?
b0 H
b0 >
b0 G
b0 y
b101 z
b10 {
b1010000000000010 i
b100 \
b100 v
b100 w
b10100000000000100010011 +
b10100000000000100010011 1
b10100000000000100010011 2
b10100000000000100010011 S
b100 [
b100 l
b100 s
b100 #"
b0 "
b0 )
b0 0
b0 9
b0 _
b0 m
b0 q
b0 x
b1 &
1$
#10000
0$
#15000
b10 &
1$
#20000
0$
0%
#25000
b1100 Y
b1100 |
b1100 &"
b1100 #
b1100 ,
b1100 .
b1100 ;
b1100 ^
b1100 c
b1100 !"
b1100 W
b1100 a
b1100 g
b1100 ]
b1100 d
b1100 j
b1100 o
b1100 z
b11 {
b11000000000000011 i
b1000 \
b1000 v
b1000 w
b110000000000000110010011 +
b110000000000000110010011 1
b110000000000000110010011 2
b110000000000000110010011 S
b10000 Z
b10000 p
b10000 t
b1000 [
b1000 l
b1000 s
b1000 #"
b100 "
b100 )
b100 0
b100 9
b100 _
b100 m
b100 q
b100 x
b11 &
1$
#30000
0$
#35000
b11 Y
b11 |
b11 &"
b11 #
b11 ,
b11 .
b11 ;
b11 ^
b11 c
b11 !"
b11111111111111111111111111110111 W
b11111111111111111111111111110111 a
b11111111111111111111111111110111 g
b1100 X
b1100 b
b1100 }
b11111111111111111111111111110111 ]
b11111111111111111111111111110111 d
b11111111111111111111111111110111 j
b11111111111111111111111111110111 o
b1111111 ?
b1111111 H
b11 y
b10111 z
b111 {
b1111111101110001100000111 i
b1100 \
b1100 v
b1100 w
b11111111011100011000001110010011 +
b11111111011100011000001110010011 1
b11111111011100011000001110010011 2
b11111111011100011000001110010011 S
b11111111111111111111111111111111 Z
b11111111111111111111111111111111 p
b11111111111111111111111111111111 t
b1100 [
b1100 l
b1100 s
b1100 #"
b1000 "
b1000 )
b1000 0
b1000 9
b1000 _
b1000 m
b1000 q
b1000 x
b100 &
1$
#40000
0$
#45000
b111 Y
b111 |
b111 &"
b111 #
b111 ,
b111 .
b111 ;
b111 ^
b111 c
b111 !"
0<
b101 W
b101 a
b101 g
b10000000100 N
b1 =
b1 F
b1 K
b1 Q
b1 `
b101 !
b101 '
b101 -
b101 5
b101 V
b101 e
b101 ~
b11 X
b11 b
b11 }
b10 ]
b10 d
b10 j
b10 o
b110011 @
b110011 I
b110011 L
b0 ?
b0 H
b110 >
b110 G
b111 y
b10 z
b100 {
b100011111000100 i
b10000 \
b10000 v
b10000 w
b1000111110001000110011 +
b1000111110001000110011 1
b1000111110001000110011 2
b1000111110001000110011 S
b1110 Z
b1110 p
b1110 t
b10000 [
b10000 l
b10000 s
b10000 #"
b1100 "
b1100 )
b1100 0
b1100 9
b1100 _
b1100 m
b1100 q
b1100 x
b101 &
1$
#50000
0$
#55000
b100 Y
b100 |
b100 &"
b100 #
b100 ,
b100 .
b100 ;
b100 ^
b100 c
b100 !"
b111 W
b111 a
b111 g
b0 =
b0 F
b0 K
b0 Q
b0 `
b111 !
b111 '
b111 -
b111 5
b111 V
b111 e
b111 ~
b1100 X
b1100 b
b1100 }
b100 ]
b100 d
b100 j
b100 o
b111 >
b111 G
b11 y
b100 z
b101 {
b1000001111100101 i
b10100 \
b10100 v
b10100 w
b10000011111001010110011 +
b10000011111001010110011 1
b10000011111001010110011 2
b10000011111001010110011 S
b10100 Z
b10100 p
b10100 t
b10100 [
b10100 l
b10100 s
b10100 #"
b10000 "
b10000 )
b10000 0
b10000 9
b10000 _
b10000 m
b10000 q
b10000 x
b110 &
1$
#60000
0$
#65000
b1011 Y
b1011 |
b1011 &"
b1011 #
b1011 ,
b1011 .
b1011 ;
b1011 ^
b1011 c
b1011 !"
b10 =
b10 F
b10 K
b10 Q
b10 `
b100 X
b100 b
b100 }
b0 >
b0 G
b101 y
b1000010100000101 i
b11000 \
b11000 v
b11000 w
b10000101000001010110011 +
b10000101000001010110011 1
b10000101000001010110011 2
b10000101000001010110011 S
b11000 Z
b11000 p
b11000 t
b11000 [
b11000 l
b11000 s
b11000 #"
b10100 "
b10100 )
b10100 0
b10100 9
b10100 _
b10100 m
b10100 q
b10100 x
b111 &
1$
#70000
0$
#75000
b110 =
b110 F
b110 K
b110 Q
b110 `
07
b10 :
b10 C
b10 O
b10 R
b10 h
1D
b1 E
b1 J
b1 M
b11 W
b11 a
b11 g
b1000 Y
b1000 |
b1000 &"
b1000001010 N
b11 !
b11 '
b11 -
b11 5
b11 V
b11 e
b11 ~
b110000 ]
b110000 d
b110000 j
b110000 o
b1000 #
b1000 ,
b1000 .
b1000 ;
b1000 ^
b1000 c
b1000 !"
b1100011 @
b1100011 I
b1100011 L
b1 ?
b1 H
b111 z
b10000 {
b1001110010100010000 i
b1011 X
b1011 b
b1011 }
b11100 \
b11100 v
b11100 w
b10011100101000100001100011 +
b10011100101000100001100011 1
b10011100101000100001100011 2
b10011100101000100001100011 S
b1001000 Z
b1001000 p
b1001000 t
b11100 [
b11100 l
b11100 s
b11100 #"
b11000 "
b11000 )
b11000 0
b11000 9
b11000 _
b11000 m
b11000 q
b11000 x
b1000 &
1$
#80000
0$
#85000
14
b111 =
b111 F
b111 K
b111 Q
b111 `
b0 Y
b0 |
b0 &"
17
b0 :
b0 C
b0 O
b0 R
b0 h
0D
b10 E
b10 J
b10 M
b0 #
b0 ,
b0 .
b0 ;
b0 ^
b0 c
b0 !"
b111 W
b111 a
b111 g
b10000000100 N
b111 !
b111 '
b111 -
b111 5
b111 V
b111 e
b111 ~
b1100 X
b1100 b
b1100 }
b100 ]
b100 d
b100 j
b100 o
b110011 @
b110011 I
b110011 L
b0 ?
b0 H
b10 >
b10 G
b11 y
b100 z
b100 {
b1000001101000100 i
b100000 \
b100000 v
b100000 w
b10000011010001000110011 +
b10000011010001000110011 1
b10000011010001000110011 2
b10000011010001000110011 S
b100000 Z
b100000 p
b100000 t
b100000 [
b100000 l
b100000 s
b100000 #"
b11100 "
b11100 )
b11100 0
b11100 9
b11100 _
b11100 m
b11100 q
b11100 x
b1001 &
1$
#90000
0$
#95000
18
07
b10 :
b10 C
b10 O
b10 R
b10 h
1D
b1 E
b1 J
b1 M
b1000001010 N
b110 =
b110 F
b110 K
b110 Q
b110 `
b0 X
b0 b
b0 }
b1000 ]
b1000 d
b1000 j
b1000 o
b0 W
b0 a
b0 g
b1100011 @
b1100011 I
b1100011 L
b0 >
b0 G
b100 y
b0 z
b1000 {
b10000001000 i
b0 !
b0 '
b0 -
b0 5
b0 V
b0 e
b0 ~
b101000 \
b101000 v
b101000 w
b100000010001100011 +
b100000010001100011 1
b100000010001100011 2
b100000010001100011 S
b101000 Z
b101000 p
b101000 t
b100100 [
b100100 l
b100100 s
b100100 #"
b100000 "
b100000 )
b100000 0
b100000 9
b100000 _
b100000 m
b100000 q
b100000 x
b1010 &
1$
#100000
0$
#105000
08
b111 =
b111 F
b111 K
b111 Q
b111 `
b1 Y
b1 |
b1 &"
17
b0 :
b0 C
b0 O
b0 R
b0 h
0D
b10 E
b10 J
b10 M
04
b1 #
b1 ,
b1 .
b1 ;
b1 ^
b1 c
b1 !"
b101 W
b101 a
b101 g
b10000000100 N
b101 !
b101 '
b101 -
b101 5
b101 V
b101 e
b101 ~
b11 X
b11 b
b11 }
b10 ]
b10 d
b10 j
b10 o
b110011 @
b110011 I
b110011 L
b10 >
b10 G
b111 y
b10 z
b100 {
b100011101000100 i
b101100 \
b101100 v
b101100 w
b1000111010001000110011 +
b1000111010001000110011 1
b1000111010001000110011 2
b1000111010001000110011 S
b101010 Z
b101010 p
b101010 t
b101100 [
b101100 l
b101100 s
b101100 #"
b101000 "
b101000 )
b101000 0
b101000 9
b101000 _
b101000 m
b101000 q
b101000 x
b1011 &
1$
#110000
0$
#115000
b1100 Y
b1100 |
b1100 &"
b1100 #
b1100 ,
b1100 .
b1100 ;
b1100 ^
b1100 c
b1100 !"
b1011 W
b1011 a
b1011 g
b10 =
b10 F
b10 K
b10 Q
b10 `
b1011 !
b1011 '
b1011 -
b1011 5
b1011 V
b1011 e
b1011 ~
b1 X
b1 b
b1 }
b101 ]
b101 d
b101 j
b101 o
b0 >
b0 G
b100 y
b101 z
b111 {
b1010010000000111 i
b110000 \
b110000 v
b110000 w
b10100100000001110110011 +
b10100100000001110110011 1
b10100100000001110110011 2
b10100100000001110110011 S
b110001 Z
b110001 p
b110001 t
b110000 [
b110000 l
b110000 s
b110000 #"
b101100 "
b101100 )
b101100 0
b101100 9
b101100 _
b101100 m
b101100 q
b101100 x
b1100 &
1$
#120000
0$
#125000
b111 Y
b111 |
b111 &"
b111 #
b111 ,
b111 .
b111 ;
b111 ^
b111 c
b111 !"
b101 W
b101 a
b101 g
b110 =
b110 F
b110 K
b110 Q
b110 `
b101 !
b101 '
b101 -
b101 5
b101 V
b101 e
b101 ~
b1100 X
b1100 b
b1100 }
b10000000010 ]
b10000000010 d
b10000000010 j
b10000000010 o
b100000 ?
b100000 H
b111 y
b10 z
b100000000100011100000111 i
b110100 \
b110100 v
b110100 w
b1000000001000111000001110110011 +
b1000000001000111000001110110011 1
b1000000001000111000001110110011 2
b1000000001000111000001110110011 S
b10000110010 Z
b10000110010 p
b10000110010 t
b110100 [
b110100 l
b110100 s
b110100 #"
b110000 "
b110000 )
b110000 0
b110000 9
b110000 _
b110000 m
b110000 q
b110000 x
b1101 &
1$
#130000
0$
#135000
07
b1 :
b1 C
b1 O
b1 R
b1 h
1<
1*
b0 E
b0 J
b0 M
04
b1010100 W
b1010100 a
b1010100 g
b1100000 Y
b1100000 |
b1100000 &"
b111000000 N
b10 =
b10 F
b10 K
b10 Q
b10 `
b111 !
b111 '
b111 -
b111 5
b111 V
b111 e
b111 ~
b1010100 ]
b1010100 d
b1010100 j
b1010100 o
b1100000 #
b1100000 ,
b1100000 .
b1100000 ;
b1100000 ^
b1100000 c
b1100000 !"
b100011 @
b100011 I
b100011 L
b10 ?
b10 H
b10 >
b10 G
b11 y
b111 z
b10100 {
b10001110001101010100 i
b1100 X
b1100 b
b1100 }
b111000 \
b111000 v
b111000 w
b100011100011010101000100011 +
b100011100011010101000100011 1
b100011100011010101000100011 2
b100011100011010101000100011 S
b10001000 Z
b10001000 p
b10001000 t
b111000 [
b111000 l
b111000 s
b111000 #"
b110100 "
b110100 )
b110100 0
b110100 9
b110100 _
b110100 m
b110100 q
b110100 x
b1110 &
1$
#140000
0$
#145000
b111 Y
b111 |
b111 &"
17
b0 :
b0 C
b0 O
b0 R
b0 h
0*
b1 6
b1 A
b1 P
b1 U
b1 $"
b1100000 #
b1100000 ,
b1100000 .
b1100000 ;
b1100000 ^
b1100000 c
b1100000 !"
b1100000 W
b1100000 a
b1100000 g
b10010010000 N
b0 !
b0 '
b0 -
b0 5
b0 V
b0 e
b0 ~
b0 X
b0 b
b0 }
b1100000 ]
b1100000 d
b1100000 j
b1100000 o
b11 @
b11 I
b11 L
b11 ?
b11 H
b0 y
b0 z
b10 {
b11000000000001000010 i
b111100 \
b111100 v
b111100 w
b110000000000010000100000011 +
b110000000000010000100000011 1
b110000000000010000100000011 2
b110000000000010000100000011 S
b111 (
b111 /
b111 3
b111 T
b111 ""
b10011000 Z
b10011000 p
b10011000 t
b111100 [
b111100 l
b111100 s
b111100 #"
b111000 "
b111000 )
b111000 0
b111000 9
b111000 _
b111000 m
b111000 q
b111000 x
b1111 &
1$
#150000
0$
#155000
bx (
bx /
bx 3
bx T
bx ""
b10010 Y
b10010 |
b10010 &"
0<
b0 6
b0 A
b0 P
b0 U
b0 $"
b10 E
b10 J
b10 M
b10010 #
b10010 ,
b10010 .
b10010 ;
b10010 ^
b10010 c
b10010 !"
b1011 W
b1011 a
b1011 g
b10000000100 N
b1011 !
b1011 '
b1011 -
b1011 5
b1011 V
b1011 e
b1011 ~
b111 X
b111 b
b111 }
b101 ]
b101 d
b101 j
b101 o
b110011 @
b110011 I
b110011 L
b0 ?
b0 H
b0 >
b0 G
b10 y
b101 z
b1001 {
b1010001000001001 i
b1000000 \
b1000000 v
b1000000 w
b10100010000010010110011 +
b10100010000010010110011 1
b10100010000010010110011 2
b10100010000010010110011 S
b1000001 Z
b1000001 p
b1000001 t
b1000000 [
b1000000 l
b1000000 s
b1000000 #"
b111100 "
b111100 )
b111100 0
b111100 9
b111100 _
b111100 m
b111100 q
b111100 x
b10000 &
1$
#160000
0$
#165000
18
b1000100 Y
b1000100 |
b1000100 &"
b11 :
b11 C
b11 O
b11 R
b11 h
b10 6
b10 A
b10 P
b10 U
b10 $"
b0 E
b0 J
b0 M
1B
x4
bx #
bx ,
bx .
bx ;
bx ^
bx c
bx !"
bx W
bx a
bx g
b11100100001 N
bx !
bx '
bx -
bx 5
bx V
bx e
bx ~
b0 X
b0 b
b0 }
b1000 ]
b1000 d
b1000 j
b1000 o
b1101111 @
b1101111 I
b1101111 L
b0 y
b1000 z
b11 {
b10000000000000011 i
b1001000 \
b1001000 v
b1001000 w
b100000000000000111101111 +
b100000000000000111101111 1
b100000000000000111101111 2
b100000000000000111101111 S
b1001000 Z
b1001000 p
b1001000 t
b1000100 [
b1000100 l
b1000100 s
b1000100 #"
b1000000 "
b1000000 )
b1000000 0
b1000000 9
b1000000 _
b1000000 m
b1000000 q
b1000000 x
b10001 &
1$
#170000
0$
#175000
08
b0 :
b0 C
b0 O
b0 R
b0 h
b0 6
b0 A
b0 P
b0 U
b0 $"
b10 E
b10 J
b10 M
0B
04
b11001 #
b11001 ,
b11001 .
b11001 ;
b11001 ^
b11001 c
b11001 !"
b10010 W
b10010 a
b10010 g
b10000000100 N
b10010 !
b10010 '
b10010 -
b10010 5
b10010 V
b10010 e
b10010 ~
b111 X
b111 b
b111 }
b1001 ]
b1001 d
b1001 j
b1001 o
b110011 @
b110011 I
b110011 L
b10 y
b1001 z
b10 {
b10010001000000010 i
b1001100 \
b1001100 v
b1001100 w
b11001 Y
b11001 |
b11001 &"
b100100010000000100110011 +
b100100010000000100110011 1
b100100010000000100110011 2
b100100010000000100110011 S
b1010001 Z
b1010001 p
b1010001 t
b1001100 [
b1001100 l
b1001100 s
b1001100 #"
b1001000 "
b1001000 )
b1001000 0
b1001000 9
b1001000 _
b1001000 m
b1001000 q
b1001000 x
b10010 &
1$
#180000
0$
#185000
07
b1 :
b1 C
b1 O
b1 R
b1 h
1<
1*
b0 E
b0 J
b0 M
04
b100000 W
b100000 a
b100000 g
b111000000 N
b10 =
b10 F
b10 K
b10 Q
b10 `
b11001 !
b11001 '
b11001 -
b11001 5
b11001 V
b11001 e
b11001 ~
b100000 ]
b100000 d
b100000 j
b100000 o
b1100100 Y
b1100100 |
b1100100 &"
b100011 @
b100011 I
b100011 L
b1 ?
b1 H
b10 >
b10 G
b11 y
b10 z
b0 {
b1000100001101000000 i
b1100100 #
b1100100 ,
b1100100 .
b1100100 ;
b1100100 ^
b1100100 c
b1100100 !"
b1010000 \
b1010000 v
b1010000 w
b10001000011010000000100011 +
b10001000011010000000100011 1
b10001000011010000000100011 2
b10001000011010000000100011 S
b1000100 X
b1000100 b
b1000100 }
b1101100 Z
b1101100 p
b1101100 t
b1010000 [
b1010000 l
b1010000 s
b1010000 #"
b1001100 "
b1001100 )
b1001100 0
b1001100 9
b1001100 _
b1001100 m
b1001100 q
b1001100 x
b10011 &
1$
#190000
0$
#195000
18
14
b110 =
b110 F
b110 K
b110 Q
b110 `
b0 Y
b0 |
b0 &"
b10 :
b10 C
b10 O
b10 R
b10 h
0<
0*
1D
b1 E
b1 J
b1 M
b0 #
b0 ,
b0 .
b0 ;
b0 ^
b0 c
b0 !"
b11001 W
b11001 a
b11001 g
b1000001010 N
b11001 X
b11001 b
b11001 }
b0 ]
b0 d
b0 j
b0 o
b1100011 @
b1100011 I
b1100011 L
b0 ?
b0 H
b0 >
b0 G
b10 y
b100001000000000 i
bx (
bx /
bx 3
bx T
bx ""
b1010000 \
b1010000 v
b1010000 w
b1000010000000001100011 +
b1000010000000001100011 1
b1000010000000001100011 2
b1000010000000001100011 S
b1010000 Z
b1010000 p
b1010000 t
b1010100 [
b1010100 l
b1010100 s
b1010100 #"
b1010000 "
b1010000 )
b1010000 0
b1010000 9
b1010000 _
b1010000 m
b1010000 q
b1010000 x
b10100 &
1$
